j1_soc/hdl/simulation/j1soc_TB.vcd
$date
	Sat Nov 28 09:15:10 2015
$end
$version
	Icarus Verilog
$end
$timescale
	1s
$end
$scope module j1soc_TB $end
$scope module uut $end
$var wire 16 ! div_dout [15:0] $end
$var wire 16 " dp_ram_dout [15:0] $end
$var wire 16 # j1_io_addr [15:0] $end
$var wire 16 $ j1_io_dout [15:0] $end
$var wire 1 % j1_io_rd $end
$var wire 1 & j1_io_wr $end
$var wire 1 ' ledout $end
$var wire 16 ( mult_dout [15:0] $end
$var wire 1 ) sys_clk_i $end
$var wire 1 * sys_rst_i $end
$var wire 1 + uart_dout $end
$var wire 1 , uart_tx $end
$var reg 4 - cs [1:4] $end
$var reg 16 . j1_io_din [15:0] $end
$scope module cpu0 $end
$var wire 1 / _dstkW $end
$var wire 1 0 _ramWE $end
$var wire 2 1 dd [1:0] $end
$var wire 16 2 immediate [15:0] $end
$var wire 16 3 insn [15:0] $end
$var wire 16 4 io_addr [15:0] $end
$var wire 16 5 io_din [15:0] $end
$var wire 16 6 io_dout [15:0] $end
$var wire 1 % io_rd $end
$var wire 1 & io_wr $end
$var wire 1 7 is_alu $end
$var wire 1 8 is_lit $end
$var wire 16 9 pc_plus_1 [15:0] $end
$var wire 16 : ramrd [15:0] $end
$var wire 2 ; rd [1:0] $end
$var wire 16 < rst0 [15:0] $end
$var wire 16 = st1 [15:0] $end
$var wire 1 ) sys_clk_i $end
$var wire 1 * sys_rst_i $end
$var reg 5 > _dsp [4:0] $end
$var reg 13 ? _pc [12:0] $end
$var reg 5 @ _rsp [4:0] $end
$var reg 16 A _rstkD [15:0] $end
$var reg 1 B _rstkW $end
$var reg 16 C _st0 [15:0] $end
$var reg 5 D dsp [4:0] $end
$var reg 13 E pc [12:0] $end
$var reg 5 F rsp [4:0] $end
$var reg 16 G st0 [15:0] $end
$var reg 4 H st0sel [3:0] $end
$scope module ram0 $end
$var wire 13 I adr_a [12:0] $end
$var wire 13 J adr_b [12:0] $end
$var wire 1 ) clk_a $end
$var wire 1 ) clk_b $end
$var wire 16 K dat_a [15:0] $end
$var wire 1 L en_a $end
$var wire 1 M en_b $end
$var wire 1 N we_a $end
$var reg 16 O dat_a_out [15:0] $end
$var reg 16 P dat_b [15:0] $end
$upscope $end
$upscope $end
$scope module per_m $end
$var wire 4 Q addr [3:0] $end
$var wire 1 ) clk $end
$var wire 1 R cs $end
$var wire 16 S d_in [15:0] $end
$var wire 1 T done $end
$var wire 32 U pp [31:0] $end
$var wire 1 % rd $end
$var wire 1 * rst $end
$var wire 1 & wr $end
$var reg 16 V A [15:0] $end
$var reg 16 W B [15:0] $end
$var reg 16 X d_out [15:0] $end
$var reg 1 Y init $end
$var reg 6 Z s [5:0] $end
$scope module mt_32 $end
$var wire 16 [ A [15:0] $end
$var wire 16 \ B [15:0] $end
$var wire 1 ) clk $end
$var wire 1 T done $end
$var wire 1 ] init $end
$var wire 32 ^ pp [31:0] $end
$var wire 1 * rst $end
$var wire 32 _ w_A [31:0] $end
$var wire 16 ` w_B [15:0] $end
$var wire 1 a w_add $end
$var wire 1 b w_reset $end
$var wire 1 c w_sh $end
$var wire 1 d w_z $end
$scope module rsr0 $end
$var wire 1 ) clk $end
$var wire 16 e in_B [15:0] $end
$var wire 1 b load $end
$var wire 1 c shift $end
$var reg 16 f s_B [15:0] $end
$upscope $end
$scope module lsr0 $end
$var wire 1 ) clk $end
$var wire 16 g in_A [15:0] $end
$var wire 1 b load $end
$var wire 1 c shift $end
$var reg 31 h s_A [30:0] $end
$upscope $end
$scope module comp0 $end
$var wire 16 i B [15:0] $end
$var wire 1 d z $end
$var reg 1 j tmp $end
$upscope $end
$scope module acc0 $end
$var wire 32 k A [31:0] $end
$var wire 1 a add $end
$var wire 1 ) clk $end
$var wire 1 b rst $end
$var reg 32 l pp [31:0] $end
$upscope $end
$scope module control0 $end
$var wire 1 ) clk $end
$var wire 1 ] init $end
$var wire 1 m lsb_B $end
$var wire 1 * rst $end
$var wire 1 d z $end
$var reg 1 n add $end
$var reg 4 o count [3:0] $end
$var reg 1 p done $end
$var reg 1 q reset $end
$var reg 1 r sh $end
$var reg 3 s state [2:0] $end
$upscope $end
$upscope $end
$upscope $end
$scope module per_d $end
$var wire 16 t C [15:0] $end
$var wire 4 u addr [3:0] $end
$var wire 1 ) clk $end
$var wire 1 v cs $end
$var wire 16 w d_in [15:0] $end
$var wire 1 x done $end
$var wire 1 % rd $end
$var wire 1 * rst $end
$var wire 1 & wr $end
$var reg 16 y A [15:0] $end
$var reg 16 z B [15:0] $end
$var reg 16 { d_out [15:0] $end
$var reg 1 | init $end
$var reg 6 } s [5:0] $end
$scope module d_16 $end
$var wire 16 ~ A [15:0] $end
$var wire 16 !" B [15:0] $end
$var wire 1 "" DEC $end
$var wire 1 #" DV0 $end
$var wire 1 $" INIT $end
$var wire 1 %" LDA $end
$var wire 1 &" MSB $end
$var wire 16 '" Reg_A [15:0] $end
$var wire 16 (" Result [15:0] $end
$var wire 16 )" Result_Sub [15:0] $end
$var wire 1 *" SH $end
$var wire 1 ) clk $end
$var wire 1 x done $end
$var wire 1 +" init_in $end
$var wire 1 * rst $end
$var wire 1 ," z $end
$scope module lsr_d $end
$var wire 16 -" DV_in [15:0] $end
$var wire 1 $" INIT $end
$var wire 1 %" LDA $end
$var wire 16 ." Result [15:0] $end
$var wire 1 *" SH $end
$var wire 1 ) clk $end
$var wire 1 /" rst $end
$var reg 16 0" A [15:0] $end
$var reg 16 1" DV [15:0] $end
$upscope $end
$scope module sb $end
$var wire 1 #" DV0 $end
$var wire 1 ) clk $end
$var wire 16 2" in_A [15:0] $end
$var wire 16 3" in_B [15:0] $end
$var wire 1 * rst $end
$var reg 1 4" MSB $end
$var reg 16 5" Result [15:0] $end
$upscope $end
$scope module ctr_dv $end
$var wire 1 "" DEC $end
$var wire 1 ) clk $end
$var wire 1 $" rst $end
$var reg 5 6" cont [4:0] $end
$var reg 1 7" z $end
$upscope $end
$scope module ctl_dv $end
$var wire 1 &" MSB $end
$var wire 1 ) clk $end
$var wire 1 * rst $end
$var wire 1 +" start $end
$var wire 1 ," z $end
$var reg 1 8" DEC $end
$var reg 1 9" DONE $end
$var reg 1 :" DV0 $end
$var reg 1 ;" INIT $end
$var reg 1 <" LDA $end
$var reg 1 =" SH $end
$var reg 4 >" count [3:0] $end
$var reg 3 ?" state [2:0] $end
$upscope $end
$scope module fr $end
$var wire 1 "" DEC $end
$var wire 1 &" MSB $end
$var wire 1 ) clk $end
$var wire 1 $" rst $end
$var reg 16 @" Result [15:0] $end
$upscope $end
$upscope $end
$upscope $end
$scope module per_u $end
$var wire 4 A" addr [3:0] $end
$var wire 1 ) clk $end
$var wire 1 B" cs $end
$var wire 16 C" d_in [15:0] $end
$var wire 1 % rd $end
$var wire 1 * rst $end
$var wire 1 D" uart_busy $end
$var wire 1 , uart_tx $end
$var wire 1 & wr $end
$var reg 8 E" d_in_uart [7:0] $end
$var reg 16 F" d_out [15:0] $end
$var reg 1 G" ledout $end
$var reg 3 H" s [2:0] $end
$scope module uart $end
$var wire 29 I" dInc [28:0] $end
$var wire 29 J" dNxt [28:0] $end
$var wire 1 K" sending $end
$var wire 1 L" ser_clk $end
$var wire 1 ) sys_clk_i $end
$var wire 1 * sys_rst_i $end
$var wire 1 D" uart_busy $end
$var wire 8 M" uart_dat_i [7:0] $end
$var wire 1 N" uart_wr_i $end
$var reg 4 O" bitcount [3:0] $end
$var reg 29 P" d [28:0] $end
$var reg 9 Q" shifter [8:0] $end
$var reg 1 R" uart_tx $end
$upscope $end
$upscope $end
$scope module dpRm $end
$var wire 8 S" addr [7:0] $end
$var wire 8 T" addr_p [7:0] $end
$var wire 1 ) clk $end
$var wire 1 U" cs $end
$var wire 16 V" d_in [15:0] $end
$var wire 16 W" d_in_p [15:0] $end
$var wire 16 X" d_out [15:0] $end
$var wire 16 Y" d_out_p [15:0] $end
$var wire 1 % rd $end
$var wire 1 Z" rd_p $end
$var wire 1 & wr $end
$var wire 1 [" wr_p $end
$scope module dlptRAM $end
$var wire 8 \" addr_1 [7:0] $end
$var wire 8 ]" addr_2 [7:0] $end
$var wire 1 ) clk $end
$var wire 16 ^" d_in_1 [15:0] $end
$var wire 16 _" d_in_2 [15:0] $end
$var wire 1 `" rd_1 $end
$var wire 1 Z" rd_2 $end
$var wire 1 a" wr_1 $end
$var wire 1 [" wr_2 $end
$var reg 16 b" d_out_1 [15:0] $end
$var reg 16 c" d_out_2 [15:0] $end
$upscope $end
$scope module c_p $end
$var wire 1 ) clk $end
$var wire 16 d" d_in [15:0] $end
$var reg 16 e" F_1 [15:0] $end
$var reg 16 f" F_2 [15:0] $end
$var reg 16 g" F_3 [15:0] $end
$var reg 16 h" F_4 [15:0] $end
$var reg 16 i" F_5 [15:0] $end
$var reg 16 j" F_6 [15:0] $end
$var reg 8 k" addr [7:0] $end
$var reg 16 l" d_out [15:0] $end
$var reg 4 m" estado [3:0] $end
$var reg 1 n" rd $end
$var reg 1 o" wr $end
$upscope $end
$upscope $end
$upscope $end
$upscope $end
$enddefinitions $end
#0
$dumpvars
0o"
1n"
b0 m"
b0 l"
b1010 k"
b0 j"
b0 i"
b0 h"
b0 g"
b0 f"
b0 e"
b0 d"
b0 c"
b0 b"
0a"
0`"
b0 _"
bx ^"
b1010 ]"
b0 \"
0["
1Z"
b0 Y"
b0 X"
b0 W"
bx V"
0U"
b1010 T"
b0 S"
1R"
b0 Q"
b0 P"
b0 O"
0N"
bx M"
1L"
0K"
b11010000010111110000100000000 J"
b11010000010111110000100000000 I"
b0 H"
0G"
bx F"
bx E"
0D"
bx C"
0B"
b0 A"
b0 @"
b0 ?"
bx >"
0="
0<"
1;"
0:"
09"
08"
x7"
b10000 6"
b0 5"
04"
b0 3"
bx 2"
bx 1"
bx 0"
0/"
b0 ."
b0 -"
x,"
0+"
0*"
b0 )"
b0 ("
bx '"
0&"
0%"
1$"
0#"
0""
b0 !"
b0 ~
b0 }
0|
bx {
b0 z
b0 y
0x
bx w
0v
b0 u
b0 t
b0 s
0r
1q
0p
bx o
0n
xm
b0 l
b0xxxxxxxxxxxxxxxxxxxxxxxxxxxxxxx k
0j
bx i
bx h
b0 g
bx f
b0 e
0d
0c
1b
0a
bx `
b0xxxxxxxxxxxxxxxxxxxxxxxxxxxxxxx _
b0 ^
0]
b0 \
b0 [
b0 Z
0Y
bx X
b0 W
b0 V
b0 U
0T
bx S
0R
b0 Q
bx P
bx O
xN
1M
xL
bx K
b0 J
b0 I
bx H
b0 G
b0 F
b0 E
b0 D
bx C
0B
b0 A
b0 @
b0 ?
b0 >
bx =
bx <
bx ;
bx :
b1 9
x8
x7
bx 6
b11001100110 5
b0 4
bx 3
b0xxxxxxxxxxxxxxx 2
bx 1
x0
x/
b11001100110 .
b0 -
1,
x+
1*
1)
bx (
0'
x&
0%
bx $
b0 #
b0 "
bx !
$end
#1
bx c"
bx Y"
bx d"
0m
1j
1d
0+
b0 f
b0 `
b0 i
b0 h
b0 _
b0 k
b0 X
b0 (
b0 1"
b0 0"
b0 '"
b0 2"
07"
0,"
b0 {
b0 !
b0 F"
0)
#2
0N
1L
0/
00
0&
b0 C
b1 ;
b0 1
08
07
b10000110100 2
b0 H
b10000110100 P
b10000110100 3
bx j"
1)
#3
0)
#4
b10000110100 O
b10000110100 :
1)
#5
0)
#6
1)
#7
0)
#8
1)
#9
0)
#10
1/
xL
bx C
b10000110101 9
b0 ;
17
b110000110000000 2
b1 H
b10000110100 E
b110000110000000 P
b110000110000000 3
b11100001000000000 I"
0L"
b0 A
b11010000010111110000100000000 P"
b11010000011011010001100000000 J"
b0 >"
b0 o
b10000110101 ?
b10000110101 J
1)
0*
#11
0)
#12
0/
b1 @
b11111 >
bx I
b1 ;
b11 1
b110000101000111 2
bx A
1B
bx S"
bx \"
bx A"
bx u
bx Q
b10000110110 ?
b10000110110 J
b10000110110 9
b110000101000111 P
b110000101000111 3
bx G
bx #
bx 4
b10000110101 E
1L
b0 C
b0 $
b0 6
b0 S
b0 w
b0 C"
b0 V"
b0 ^"
b0 =
b0 K
b11010000011011010001100000000 P"
b11010000011110110010100000000 J"
1)
#13
0)
#14
b0 I
xL
b0 S"
b0 \"
b0 A"
b0 u
b0 Q
b10000110111 ?
b10000110111 J
b10000110111 9
b0 A
b10 @
b11110 >
bx C
b1 F
b0 G
b0 #
b0 4
b10000110110 E
b11111 D
bx $
bx 6
bx S
bx w
bx C"
bx V"
bx ^"
bx =
bx K
bx O
bx :
b11010000011110110010100000000 P"
b11010000100010010011100000000 J"
1)
#15
0)
#16
bx I
b1 1
07
b100000000000101 2
b0 H
bx S"
bx \"
bx A"
bx u
bx Q
b101 ?
b101 J
b10000111000 9
b100001110000 A
1B
b11 @
b11110 >
b100000000000101 P
b100000000000101 3
b10 F
b0 <
bx G
bx #
bx 4
b10000110111 E
b11110 D
b11010000100010010011100000000 P"
b11010000100101110100100000000 J"
1)
#17
0)
#18
b11111 >
1/
1L
b110 9
b0 ;
18
b1 2
b1 C
b110 A
0B
b110 ?
b110 J
b11 F
b100001110000 <
b101 E
b1000000000000001 P
b1000000000000001 3
b11010000100101110100100000000 P"
b11010000101001010101100000000 J"
1)
#19
0)
#20
xL
0/
bx C
b0 I
b1 A
b10 @
b11 ;
b11 1
08
17
b111001000001111 2
b10 H
b1 S"
b1 \"
b1 A"
b1 u
b1 Q
b10000111000 ?
b10000111000 J
b111 9
b11110 >
b111001000001111 P
b111001000001111 3
b1 G
b1 #
b1 4
b110 E
b11111 D
b11010000101001010101100000000 P"
b11010000101100110110100000000 J"
1)
#21
0)
#22
1/
bx I
bx S"
bx \"
bx A"
bx u
bx Q
b10000111001 9
b0 ;
b1 1
b110000010000001 2
b0 H
bx A
b10 @
b11111 >
b10000111001 ?
b10000111001 J
b10 F
b0 <
bx G
bx #
bx 4
b10000111000 E
b11110 D
b110000010000001 P
b110000010000001 3
b11010000101100110110100000000 P"
b11010000110000010111100000000 J"
1)
#23
0)
#24
0/
b100001110100 A
b11 @
b1 ;
b10 1
07
b100001011010110 2
b1011010110 ?
b1011010110 J
b10000111010 9
1B
b11111 >
b100001011010110 P
b100001011010110 3
b10000111001 E
b11111 D
b11010000110000010111100000000 P"
b11010000110011111000100000000 J"
1)
#25
0)
#26
b0 >
1/
0L
b1011010111 9
b0 ;
b0 1
18
b110100100000000 2
b1001 H
b110100100000000 C
b1011010111 A
0B
b1011010111 ?
b1011010111 J
b11 F
b100001110100 <
b1011010110 E
b1110100100000000 P
b1110100100000000 3
b11010000110011111000100000000 P"
b11010000110111011001100000000 J"
1)
#27
0)
#28
b1 H"
1%
0/
b1010010000000 I
b0 .
b0 5
1B"
b110100100000000 A
1L
08
17
b110110000000000 2
b1100 H
b0 S"
b0 \"
b0 A"
b0 u
b0 Q
b10 -
b1011011000 ?
b1011011000 J
b1011011000 9
b0 >
b0 C
b110110000000000 P
b110110000000000 3
b110100100000000 G
b110100100000000 #
b110100100000000 4
b1011010111 E
b0 D
b11010000110111011001100000000 P"
b11010000111010111010100000000 J"
1)
#29
b0 F"
0)
#30
b0 H"
b0 I
0%
b11001100110 .
b11001100110 5
0B"
1B
b100 @
1L
b0 -
b1011011001 9
07
b100000000010000 2
b0 H
b0 C
b10110110010 A
b10000 ?
b10000 J
b0 G
b0 #
b0 4
b1011011000 E
b1111111111111111 O
b1111111111111111 :
b100000000010000 P
b100000000010000 3
b11010000111010111010100000000 P"
b11010000111110011011100000000 J"
1)
#31
0)
#32
b1 >
1/
1L
18
b0 2
b10001 A
0B
b0 C
b10001 ?
b10001 J
b10001 9
b1000000000000000 P
b1000000000000000 3
b10000110100 O
b10000110100 :
b100 F
b10110110010 <
b10000 E
b11010000111110011011100000000 P"
b11010001000001111100100000000 J"
1)
#33
0)
#34
0L
0/
b1011011001 ?
b1011011001 J
b0 A
b11 @
b1111111111111111 C
b10010 9
b11 ;
b11 1
08
17
b111011100001111 2
b111 H
b0 >
b10001 E
b1 D
b0 $
b0 6
b0 S
b0 w
b0 C"
b0 V"
b0 ^"
b0 =
b0 K
b111011100001111 P
b111011100001111 3
b11010001000001111100100000000 P"
b11010001000101011101100000000 J"
1)
#35
0)
#36
b1111111111111 I
xL
b1 ;
b10 1
07
b10001011010110 2
b1 H
b11111111 S"
b11111111 \"
b1111 A"
b1111 u
b1111 Q
b1011011010 ?
b1011011010 J
b1011011010 9
b1011011010 A
0B
b11 @
b11111 >
bx C
b10001011010110 P
b10001011010110 3
b11 F
b100001110100 <
b1111111111111111 G
b1111111111111111 #
b1111111111111111 4
b1011011001 E
b0 D
bx $
bx 6
bx S
bx w
bx C"
bx V"
bx ^"
bx =
bx K
b11010001000101011101100000000 P"
b11010001001000111110100000000 J"
1)
#37
0)
#38
b1011011011 A
bx I
b1011011011 ?
b1011011011 J
b0 >
1/
0L
bx S"
bx \"
bx A"
bx u
bx Q
b1011011011 9
b0 ;
18
b110100100000010 2
b1001 H
b110100100000010 C
bx G
bx #
bx 4
b1011011010 E
b11111 D
b1110100100000010 P
b1110100100000010 3
b11010001001000111110100000000 P"
b11010001001100011111100000000 J"
1)
#39
0)
#40
1N"
b10 H"
0N
0/
10
1&
b1010010000001 I
b0 .
b0 5
1B"
b110100100000010 A
0L
b11 1
08
17
b110000000100011 2
b0 H
b10 S"
b10 \"
b10 A"
b10 u
b10 Q
b10 -
b1011011100 ?
b1011011100 J
b1011011100 9
b11111 >
b110100100000010 C
b110000000100011 P
b110000000100011 3
b110100100000010 G
b110100100000010 #
b110100100000010 4
b1011011011 E
b0 D
b11010001001100011111100000000 P"
b11010001010000000000100000000 J"
1)
#41
0)
#42
0N"
b0 H"
xL
b10 @
00
0&
bx C
1D"
b1011011101 9
b11 ;
b111000100001111 2
b1 H
b11110 >
b10000111010 ?
b10000111010 J
b1011 O"
1K"
bx0 Q"
b1011011100 E
b11111 D
b111000100001111 P
b111000100001111 3
b11010001010000000000100000000 P"
b11010001010011100001100000000 J"
1)
#43
0)
#44
bx I
b11001100110 .
b11001100110 5
0B"
b10 ;
b1 1
07
b100000001001001 2
b0 H
bx S"
bx \"
bx A"
bx u
bx Q
b0 -
b1001001 ?
b1001001 J
b10000111011 9
b100001110110 A
1B
b11 @
b11110 >
b100000001001001 P
b100000001001001 3
b10 F
b0 <
bx G
bx #
bx 4
b10000111010 E
b11110 D
b11010001010011100001100000000 P"
b11010001010111000010100000000 J"
1)
#45
0)
#46
1/
1L
b10 @
b11111 >
b100001110110 C
b1001010 9
b11 ;
17
b110101110001101 2
b1011 H
bx A
0B
b1001010 ?
b1001010 J
b11 F
b100001110110 <
b1001001 E
b110101110001101 P
b110101110001101 3
b11010001010111000010100000000 P"
b11010001011010100011100000000 J"
1)
#47
0)
#48
b10000111011 I
b1110110 S"
b1110110 \"
b110 A"
b110 u
b110 Q
b1001011 ?
b1001011 J
b1001011 9
b100001110110 A
b1 @
b0 >
b0 C
bx O
bx :
b10 F
b0 <
b100001110110 G
b100001110110 #
b100001110110 4
b1001010 E
b11111 D
b11010001011010100011100000000 P"
b11010001011110000100100000000 J"
1)
#49
0)
#50
0/
b0 I
1B
1L
b0 S"
b0 \"
b0 A"
b0 u
b0 Q
b1001100 9
b1 ;
07
b100000000000101 2
b0 H
b0 C
b10011000 A
b10 @
b0 >
b101 ?
b101 J
b1 F
bx <
b0 G
b0 #
b0 4
b1001011 E
b0 D
b100001110110 $
b100001110110 6
b100001110110 S
b100001110110 w
b100001110110 C"
b100001110110 V"
b100001110110 ^"
b100001110110 =
b100001110110 K
b10010000110111 O
b10010000110111 :
b100000000000101 P
b100000000000101 3
b11010001011110000100100000000 P"
b11010001100001100101100000000 J"
1)
#51
0)
#52
b1 >
1/
1L
b0 ;
18
b1 2
b110 A
0B
b1 C
b110 ?
b110 J
b110 9
b1000000000000001 P
b1000000000000001 3
b10000110100 O
b10000110100 :
b10 F
b10011000 <
b101 E
b11010001100001100101100000000 P"
b11010001100101000110100000000 J"
1)
#53
0)
#54
0/
b1001100 ?
b1001100 J
b1 A
b1 @
b1 S"
b1 \"
b1 A"
b1 u
b1 Q
b111 9
b11 ;
b11 1
08
17
b111001000001111 2
b10 H
b0 >
b1 G
b1 #
b1 4
b110 E
b1 D
b0 $
b0 6
b0 S
b0 w
b0 C"
b0 V"
b0 ^"
b0 =
b0 K
b111001000001111 P
b111001000001111 3
b11010001100101000110100000000 P"
b11010001101000100111100000000 J"
1)
#55
0)
#56
1/
xL
b0 ;
b1 1
b110101110000001 2
b1011 H
b1001101 ?
b1001101 J
b1001101 9
b1 @
b1 >
bx C
b110101110000001 P
b110101110000001 3
b1 F
bx <
b1001100 E
b0 D
b100001110110 $
b100001110110 6
b100001110110 S
b100001110110 w
b100001110110 C"
b100001110110 V"
b100001110110 ^"
b100001110110 =
b100001110110 K
b11010001101000100111100000000 P"
b11010001101100001000100000000 J"
1)
#57
0)
#58
1L
bx I
b1001110 ?
b1001110 J
b1 C
bx S"
bx \"
bx A"
bx u
bx Q
b1001110 9
b110000110000001 2
b1 H
bx A
b10 >
bx G
bx #
bx 4
b1001101 E
b1 D
b1 $
b1 6
b1 S
b1 w
b1 C"
b1 V"
b1 ^"
b1 =
b1 K
b110000110000001 P
b110000110000001 3
b11010001101100001000100000000 P"
b11010001101111101001100000000 J"
1)
#59
0)
#60
0/
b0 I
xL
b11 1
b110011100000011 2
b111 H
b1 S"
b1 \"
b1 A"
b1 u
b1 Q
b1001111 ?
b1001111 J
b1001111 9
b1 A
b1 >
bx C
b110011100000011 P
b110011100000011 3
bx O
bx :
b1 G
b1 #
b1 4
b1001110 E
b10 D
bx $
bx 6
bx S
bx w
bx C"
bx V"
bx ^"
bx =
bx K
b11010001101111101001100000000 P"
b11010001110011001010100000000 J"
1)
#61
0)
#62
1/
bx I
b1010000 ?
b1010000 J
bx S"
bx \"
bx A"
bx u
bx Q
b1010000 9
b1 1
b110000010000001 2
b0 H
bx A
b10 >
bx G
bx #
bx 4
b1001111 E
b1 D
b1 $
b1 6
b1 S
b1 w
b1 C"
b1 V"
b1 ^"
b1 =
b1 K
b110000010000001 P
b110000010000001 3
b11010001110011001010100000000 P"
b11010001110110101011100000000 J"
1)
#63
0)
#64
0/
b1010001 A
b1 ;
07
b10000001010101 2
b1 H
b1010001 ?
b1010001 J
b1010001 9
0B
b1 >
b10000001010101 P
b10000001010101 3
b1010000 E
b10 D
bx $
bx 6
bx S
bx w
bx C"
bx V"
bx ^"
bx =
bx K
b11010001110110101011100000000 P"
b11010001111010001100100000000 J"
1)
#65
0)
#66
b1010010 ?
b1010010 J
bx A
b0 >
xL
b1010010 9
b0 ;
b11 1
17
b110000000000011 2
b0 H
bx C
b1010001 E
b1 D
b1 $
b1 6
b1 S
b1 w
b1 C"
b1 V"
b1 ^"
b1 =
b1 K
b110000000000011 P
b110000000000011 3
b11010001111010001100100000000 P"
b11010001111101101101100000000 J"
1)
#67
0)
#68
1/
b0 @
b11 ;
b1 1
b110101110001101 2
b1011 H
b1010011 ?
b1010011 J
b1010011 9
b1 >
b110101110001101 P
b110101110001101 3
b1010010 E
b0 D
b100001110110 $
b100001110110 6
b100001110110 S
b100001110110 w
b100001110110 C"
b100001110110 V"
b100001110110 ^"
b100001110110 =
b100001110110 K
b11010001111101101101100000000 P"
b11010010000001001110100000000 J"
1)
#69
0)
#70
0/
b1010100 ?
b1010100 J
b1010100 9
b0 ;
b11 1
b110000100000011 2
b1 H
b0 @
b0 >
b0 F
b1010011 E
b1 D
bx $
bx 6
bx S
bx w
bx C"
bx V"
bx ^"
bx =
bx K
b110000100000011 P
b110000100000011 3
b11010010000001001110100000000 P"
b11010010000100101111100000000 J"
1)
#71
0)
#72
b1010111 A
xL
b1 ;
07
b1010111 2
b0 H
b1010111 ?
b1010111 J
b1010101 9
0B
b0 >
bx C
b1010111 P
b1010111 3
b1010100 E
b0 D
b100001110110 $
b100001110110 6
b100001110110 S
b100001110110 w
b100001110110 C"
b100001110110 V"
b100001110110 ^"
b100001110110 =
b100001110110 K
b11010010000100101111100000000 P"
b11010010001000010000100000000 J"
1)
#73
0)
#74
1/
1L
b100001110110 C
b1011000 9
b0 ;
b0 1
17
b110000110000000 2
b1 H
bx A
b1011000 ?
b1011000 J
b1010111 E
b110000110000000 P
b110000110000000 3
b11010010001000010000100000000 P"
b11010010001011110001100000000 J"
1)
#75
0)
#76
0/
b1 @
b11111 >
b10000111011 I
b1 ;
b11 1
b110000101000111 2
b100001110110 A
1B
b1110110 S"
b1110110 \"
b110 A"
b110 u
b110 Q
b1011001 ?
b1011001 J
b1011001 9
b110000101000111 P
b110000101000111 3
b100001110110 G
b100001110110 #
b100001110110 4
b1011000 E
xL
bx C
bx $
bx 6
bx S
bx w
bx C"
bx V"
bx ^"
bx =
bx K
b11010010001011110001100000000 P"
b11010010001111010010100000000 J"
1)
#77
0)
#78
bx I
bx S"
bx \"
bx A"
bx u
bx Q
b1011010 9
b11 ;
b0 1
b111000000001100 2
b0 H
bx A
0B
b0 @
b11111 >
b10000111011 ?
b10000111011 J
b1 F
b100001110110 <
bx G
bx #
bx 4
b1011001 E
b11111 D
b111000000001100 P
b111000000001100 3
b11010010001111010010100000000 P"
b11010010010010110011100000000 J"
1)
#79
0)
#80
b10000111100 A
b11110 >
b1 ;
b11 1
07
b10010000110111 2
b1 H
b0 @
b10000111100 ?
b10000111100 J
b10000111100 9
b10010000110111 P
b10010000110111 3
b0 F
bx <
b10000111011 E
b11010010010010110011100000000 P"
b11010010010110010100100000000 J"
1)
#81
0)
#82
bx ?
bx J
bx A
b11111 @
b10000111101 9
b11 ;
b0 1
17
b111000000001100 2
b0 H
b10000111100 E
b11110 D
b111000000001100 P
b111000000001100 3
b11010010010110010100100000000 P"
b11010010011001110101100000000 J"
1)
#83
0)
#84
xN
x%
x/
b0xxxxxxxxxxxxx A
x0
x&
bx ;
bx 1
x8
x7
b0xxxxxxxxxxxxxxx 2
bx H
0B
b11111 @
bx 9
bx P
bx 3
b11111 F
bx E
b11010010011001110101100000000 P"
b11010010011101010110100000000 J"
1)
#85
0)
#86
b11010010011101010110100000000 P"
b11010010100000110111100000000 J"
1)
#87
0)
#88
b11010010100000110111100000000 P"
b11010010100100011000100000000 J"
1)
#89
0)
#90
b11010010100100011000100000000 P"
b11010010100111111001100000000 J"
1)
#91
0)
#92
b11010010100111111001100000000 P"
b11010010101011011010100000000 J"
1)
#93
0)
#94
b11010010101011011010100000000 P"
b11010010101110111011100000000 J"
1)
#95
0)
#96
b11010010101110111011100000000 P"
b11010010110010011100100000000 J"
1)
#97
0)
#98
b11010010110010011100100000000 P"
b11010010110101111101100000000 J"
1)
#99
0)
#100
b11010010110101111101100000000 P"
b11010010111001011110100000000 J"
1)
#101
0)
#102
b11010010111001011110100000000 P"
b11010010111100111111100000000 J"
1)
#103
0)
#104
b11010010111100111111100000000 P"
b11010011000000100000100000000 J"
1)
#105
0)
#106
b11010011000000100000100000000 P"
b11010011000100000001100000000 J"
1)
#107
0)
#108
b11010011000100000001100000000 P"
b11010011000111100010100000000 J"
1)
#109
0)
#110
b11010011000111100010100000000 P"
b11010011001011000011100000000 J"
1)
#111
0)
#112
b11010011001011000011100000000 P"
b11010011001110100100100000000 J"
1)
#113
0)
#114
b11010011001110100100100000000 P"
b11010011010010000101100000000 J"
1)
#115
0)
#116
b11010011010010000101100000000 P"
b11010011010101100110100000000 J"
1)
#117
0)
#118
b11010011010101100110100000000 P"
b11010011011001000111100000000 J"
1)
#119
0)
#120
b11010011011001000111100000000 P"
b11010011011100101000100000000 J"
1)
#121
0)
#122
b11010011011100101000100000000 P"
b11010011100000001001100000000 J"
1)
#123
0)
#124
b11010011100000001001100000000 P"
b11010011100011101010100000000 J"
1)
#125
0)
#126
b11010011100011101010100000000 P"
b11010011100111001011100000000 J"
1)
#127
0)
#128
b11010011100111001011100000000 P"
b11010011101010101100100000000 J"
1)
#129
0)
#130
b11010011101010101100100000000 P"
b11010011101110001101100000000 J"
1)
#131
0)
#132
b11010011101110001101100000000 P"
b11010011110001101110100000000 J"
1)
#133
0)
#134
b11010011110001101110100000000 P"
b11010011110101001111100000000 J"
1)
#135
0)
#136
b11010011110101001111100000000 P"
b11010011111000110000100000000 J"
1)
#137
0)
#138
b11010011111000110000100000000 P"
b11010011111100010001100000000 J"
1)
#139
0)
#140
b11010011111100010001100000000 P"
b11010011111111110010100000000 J"
1)
#141
0)
#142
b11010011111111110010100000000 P"
b11010100000011010011100000000 J"
1)
#143
0)
#144
b11010100000011010011100000000 P"
b11010100000110110100100000000 J"
1)
#145
0)
#146
b11010100000110110100100000000 P"
b11010100001010010101100000000 J"
1)
#147
0)
#148
b11010100001010010101100000000 P"
b11010100001101110110100000000 J"
1)
#149
0)
#150
b11010100001101110110100000000 P"
b11010100010001010111100000000 J"
1)
#151
0)
#152
b11010100010001010111100000000 P"
b11010100010100111000100000000 J"
1)
#153
0)
#154
b11010100010100111000100000000 P"
b11010100011000011001100000000 J"
1)
#155
0)
#156
b11010100011000011001100000000 P"
b11010100011011111010100000000 J"
1)
#157
0)
#158
b11010100011011111010100000000 P"
b11010100011111011011100000000 J"
1)
#159
0)
#160
b11010100011111011011100000000 P"
b11010100100010111100100000000 J"
1)
#161
0)
#162
b11010100100010111100100000000 P"
b11010100100110011101100000000 J"
1)
#163
0)
#164
b11010100100110011101100000000 P"
b11010100101001111110100000000 J"
1)
#165
0)
#166
b11010100101001111110100000000 P"
b11010100101101011111100000000 J"
1)
#167
0)
#168
b11010100101101011111100000000 P"
b11010100110001000000100000000 J"
1)
#169
0)
#170
b11010100110001000000100000000 P"
b11010100110100100001100000000 J"
1)
#171
0)
#172
b11010100110100100001100000000 P"
b11010100111000000010100000000 J"
1)
